{
	"info": {
		"_postman_id": "a4b2b6d0-babe-41bd-9e67-442b4898c721",
		"name": "Dummy",
		"schema": "https://schema.getpostman.com/json/collection/v2.1.0/collection.json",
		"_exporter_id": "20799068"
	},
	"item": [
		{
			"name": "All Emp Data",
			"event": [
				{
					"listen": "test",
					"script": {
						"exec": [
							"pm.test(\"Status code is 200\", function () {\r",
							"    pm.response.to.have.status(200);\r",
							"});"
						],
						"type": "text/javascript"
					}
				}
			],
			"protocolProfileBehavior": {
				"disableBodyPruning": true
			},
			"request": {
				"method": "GET",
				"header": [],
				"body": {
					"mode": "raw",
					"raw": "",
					"options": {
						"raw": {
							"language": "json"
						}
					}
				},
				"url": {
					"raw": "https://dummy.restapiexample.com/api/v1/employees",
					"protocol": "https",
					"host": [
						"dummy",
						"restapiexample",
						"com"
					],
					"path": [
						"api",
						"v1",
						"employees"
					]
				}
			},
			"response": []
		},
		{
			"name": "Single Emp data",
			"event": [
				{
					"listen": "test",
					"script": {
						"exec": [
							"pm.test(\"Status code is 200\", function () {\r",
							"    pm.response.to.have.status(200);\r",
							"});"
						],
						"type": "text/javascript"
					}
				}
			],
			"request": {
				"method": "GET",
				"header": [],
				"url": {
					"raw": "https://dummy.restapiexample.com/api/v1/employee/1",
					"protocol": "https",
					"host": [
						"dummy",
						"restapiexample",
						"com"
					],
					"path": [
						"api",
						"v1",
						"employee",
						"1"
					]
				}
			},
			"response": []
		},
		{
			"name": "Status,data,massage",
			"event": [
				{
					"listen": "test",
					"script": {
						"exec": [
							"// Step1 Validate The Status code\r",
							"pm.test(\"Status code is 200\", function () {\r",
							"    pm.response.to.have.status(200);\r",
							"});\r",
							"// step 2: Decare the Expected Result \r",
							" var requestbody=pm.request.body.raw;\r",
							" requestbody=JSON.parse(requestbody);\r",
							" var req_status=requestbody.status;\r",
							" var req_data=requestbody.data;\r",
							" var req_message=requestbody.massage;\r",
							"  // step2 validate the response body \r",
							"   // step3 extract the responsebody\r",
							"   var responseBody=pm.response.json();\r",
							"   // step3.1 Validate  response body \r",
							"\r",
							"   var res_status=responseBody.status;\r",
							"   var res_data=responseBody.data;\r",
							"   var res_message=responseBody.massage;\r",
							"   // Step3.2  validate The  response body each name \r",
							"    pm.test(\"validate the responsebody : status\", function () {\r",
							"        pm.expect(res_status).to.eql(req_status)\r",
							"    })\r",
							"    pm.test(\"validate responsebody : data\",function () {\r",
							"        pm.expect(res_data).to.eql(req_data)\r",
							"    })\r",
							"    pm.test(\"validate responsebody : mssage \",function (){\r",
							"        pm.expect(res_message).to.eql(req_message)\r",
							"    })"
						],
						"type": "text/javascript"
					}
				}
			],
			"request": {
				"method": "POST",
				"header": [],
				"body": {
					"mode": "raw",
					"raw": "{\r\n    \"status\": \"success\",\r\n    \"data\": {\r\n        \"id\": 4053\r\n    },\r\n    \"message\": \"Successfully! Record has been added.\"\r\n}",
					"options": {
						"raw": {
							"language": "json"
						}
					}
				},
				"url": {
					"raw": "https://dummy.restapiexample.com/api/v1/create",
					"protocol": "https",
					"host": [
						"dummy",
						"restapiexample",
						"com"
					],
					"path": [
						"api",
						"v1",
						"create"
					]
				}
			},
			"response": []
		},
		{
			"name": "New Request",
			"event": [
				{
					"listen": "test",
					"script": {
						"exec": [
							"//  step1   validate the status code \r",
							"pm.test(\"Status code is 200\", function () {\r",
							"    pm.response.to.have.status(200);\r",
							"});\r",
							"//Step2  Deacare the Expected result \r",
							"// step3 Fetch the request parameter  from  request body\r",
							"var requestbody=pm.request.body.raw;\r",
							"requestbody=JSON.parse(requestbody);\r",
							"var req_status=requestbody.status;\r",
							"var req_data=requestbody.data;\r",
							"var req_message=requestbody.message;\r",
							"\r",
							"// step4  validate  response Body \r",
							"//step 5 extract response  body\r",
							" var responseBody=pm.response.json();\r",
							" // step6 Extract the responsebody value for  each  name \r",
							" var res_status=response.status;\r",
							" var res_data=response.data;\r",
							" var res_message=response.message;\r",
							"\r",
							" //step7b validate the Response body \r",
							" pm.test(\"validate responsebody:status\",function(){\r",
							"     pm.expect(res_status).to.eql(req_status)\r",
							" })\r",
							" pm.test(\"validate the response: data\",function(){\r",
							"     pm.expect(res_data).to.eql(req_data)\r",
							" })\r",
							" pm.test(\"validate the response: message\",function(){\r",
							"     pm.expect(res_message).to.eql(req_message)\r",
							" })\r",
							"  \r",
							""
						],
						"type": "text/javascript"
					}
				}
			],
			"request": {
				"method": "PUT",
				"header": [],
				"body": {
					"mode": "raw",
					"raw": "{\r\n    \"status\": \"success\",\r\n    \"data\": [],\r\n    \"message\": \"Successfully! Record has been updated.\"\r\n}",
					"options": {
						"raw": {
							"language": "json"
						}
					}
				},
				"url": {
					"raw": "https://dummy.restapiexample.com/api/v1/update/21",
					"protocol": "https",
					"host": [
						"dummy",
						"restapiexample",
						"com"
					],
					"path": [
						"api",
						"v1",
						"update",
						"21"
					]
				}
			},
			"response": []
		},
		{
			"name": "New Request",
			"request": {
				"method": "DELETE",
				"header": [],
				"url": {
					"raw": ""
				}
			},
			"response": []
		}
	]
}